992
992
992
992
-8 -16 -8 936
-8 -16 -8 936
-8 16 -8 -24 904
-480 504
48 -32 -32 -128 -256 456
-8 16 -24 -40 -24 -64 72 -168 -272 -104 120
32 -24 920
-80 80 -80 80 -80 552
-16 -32 -24 -24 -24 16 -24 80 -56 24 -56 -272 248
